{
  "page": 1,
  "total_results": 10000,
  "total_pages": 500,
  "results": [
      {
          "popularity": 182.351,
          "vote_count": 2945,
          "video": false,
          "poster_path": "/8j58iEBw9pOXFD2L0nt0ZXeHviB.jpg",
          "id": 466272,
          "adult": false,
          "backdrop_path": "/nGJpQCAn2NKeDoEflLI5DIvsqoQ.jpg",
          "original_language": "en",
          "original_title": "Once Upon a Time… in Hollywood",
          "genre_ids": [
              35,
              18,
              53
          ],
          "title": "Once Upon a Time… in Hollywood",
          "vote_average": 7.5,
          "overview": "Los Angeles, 1969. TV star Rick Dalton, a struggling actor specialized in westerns, and stuntman Cliff Booth, his best friend, try to survive to a constantly changing movie industry. Dalton is neighbor of the young and promising actress and model Sharon Tate, who has just married the prestigious Polish director Roman Polanski.",
          "release_date": "2019-07-25"
      },
      {
          "popularity": 140.863,
          "vote_count": 557,
          "video": false,
          "poster_path": "/zBhv8rsLOfpFW2M5b6wW78Uoojs.jpg",
          "id": 540901,
          "adult": false,
          "backdrop_path": "/mBBJ3N3an8FLkp0ZpGgIJwHKhBP.jpg",
          "original_language": "en",
          "original_title": "Hustlers",
          "genre_ids": [
              35,
              80,
              18
          ],
          "title": "Hustlers",
          "vote_average": 6.2,
          "overview": "A crew of savvy former strip club employees band together to turn the tables on their Wall Street clients.",
          "release_date": "2019-09-12"
      },
      {
          "popularity": 79.914,
          "vote_count": 8391,
          "video": false,
          "poster_path": "/jpfkzbIXgKZqCZAkEkFH2VYF63s.jpg",
          "id": 920,
          "adult": false,
          "backdrop_path": "/a1MlbLBk5Sy6YvMbSuKfwGlDVlb.jpg",
          "original_language": "en",
          "original_title": "Cars",
          "genre_ids": [
              12,
              16,
              35,
              10751
          ],
          "title": "Cars",
          "vote_average": 6.7,
          "overview": "Lightning McQueen, a hotshot rookie race car driven to succeed, discovers that life is about the journey, not the finish line, when he finds himself unexpectedly detoured in the sleepy Route 66 town of Radiator Springs. On route across the country to the big Piston Cup Championship in California to compete against two seasoned pros, McQueen gets to know the town's offbeat characters.",
          "release_date": "2006-06-08"
      },
      {
          "popularity": 114.361,
          "vote_count": 187,
          "video": false,
          "poster_path": "/pThyQovXQrw2m0s9x82twj48Jq4.jpg",
          "id": 546554,
          "adult": false,
          "backdrop_path": "/AbRYlvwAKHs0YuyNO6NX9ofq4l6.jpg",
          "original_language": "en",
          "original_title": "Knives Out",
          "genre_ids": [
              35,
              9648,
              53
          ],
          "title": "Knives Out",
          "vote_average": 8,
          "overview": "When renowned crime novelist Harlan Thrombey is found dead at his estate just after his 85th birthday, the inquisitive and debonair Detective Benoit Blanc is mysteriously enlisted to investigate. From Harlan's dysfunctional family to his devoted staff, Blanc sifts through a web of red herrings and self-serving lies to uncover the truth behind Harlan's untimely death.",
          "release_date": "2019-11-27"
      },
      {
          "popularity": 83.814,
          "vote_count": 4238,
          "video": false,
          "poster_path": "/3iYQTLGoy7QnjcUYRJy4YrAgGvp.jpg",
          "id": 420817,
          "adult": false,
          "backdrop_path": "/rVqY0Bo4Npf6EIONUROxjYAJfmD.jpg",
          "original_language": "en",
          "original_title": "Aladdin",
          "genre_ids": [
              12,
              35,
              14,
              10749,
              10751
          ],
          "title": "Aladdin",
          "vote_average": 7,
          "overview": "A kindhearted street urchin named Aladdin embarks on a magical adventure after finding a lamp that releases a wisecracking genie while a power-hungry Grand Vizier vies for the same lamp that has the power to make their deepest wishes come true.",
          "release_date": "2019-05-22"
      },
      {
          "popularity": 93.329,
          "vote_count": 1557,
          "video": false,
          "poster_path": "/7IiTTgloJzvGI1TAYymCfbfl3vT.jpg",
          "id": 496243,
          "adult": false,
          "backdrop_path": "/TU9NIjwzjoKPwQHoHshkFcQUCG.jpg",
          "original_language": "ko",
          "original_title": "기생충",
          "genre_ids": [
              35,
              18
          ],
          "title": "Parasite",
          "vote_average": 8.5,
          "overview": "All unemployed, Ki-taek's family takes peculiar interest in the wealthy and glamorous Parks for their livelihood until they get entangled in an unexpected incident.",
          "release_date": "2019-05-30"
      },
      {
          "popularity": 88.269,
          "vote_count": 2055,
          "video": false,
          "poster_path": "/kvpNZAQow5es1tSY6XW2jAZuPPG.jpg",
          "id": 384018,
          "adult": false,
          "backdrop_path": "/qAhedRxRYWZAgZ8O8pHIl6QHdD7.jpg",
          "original_language": "en",
          "original_title": "Fast & Furious Presents: Hobbs & Shaw",
          "genre_ids": [
              28,
              12,
              35
          ],
          "title": "Fast & Furious Presents: Hobbs & Shaw",
          "vote_average": 6.6,
          "overview": "Ever since US Diplomatic Security Service Agent Hobbs and lawless outcast Shaw first faced off, they just have swapped smacks and bad words. But when cyber-genetically enhanced anarchist Brixton's ruthless actions threaten the future of humanity, both join forces to defeat him. (A spin-off of “The Fate of the Furious,” focusing on Johnson's Luke Hobbs and Statham's Deckard Shaw.)",
          "release_date": "2019-08-01"
      },
      {
          "popularity": 72.951,
          "vote_count": 209,
          "video": false,
          "poster_path": "/llhj3xtNes2Ri4d9HqtleKo1CfL.jpg",
          "id": 431580,
          "adult": false,
          "backdrop_path": "/tLCDKsXo6D84IVFanoElosSEKdp.jpg",
          "original_language": "en",
          "original_title": "Abominable",
          "genre_ids": [
              12,
              16,
              35,
              10751
          ],
          "title": "Abominable",
          "vote_average": 7,
          "overview": "A group of misfits encounter a young Yeti named Everest, and they set off to reunite the magical creature with his family on the mountain of his namesake.",
          "release_date": "2019-09-19"
      },
      {
          "popularity": 76.098,
          "vote_count": 456,
          "video": false,
          "poster_path": "/vOl6shtL0wknjaIs6JdKCpcHvg8.jpg",
          "id": 567609,
          "adult": false,
          "backdrop_path": "/j8uPZSPjKYzHlN2B4NhPQVWWZ5x.jpg",
          "original_language": "en",
          "original_title": "Ready or Not",
          "genre_ids": [
              35,
              27,
              9648,
              53
          ],
          "title": "Ready or Not",
          "vote_average": 6.8,
          "overview": "A bride's wedding night takes a sinister turn when her eccentric new in-laws force her to take part in a terrifying game.",
          "release_date": "2019-08-21"
      },
      {
          "popularity": 44.964,
          "vote_count": 28,
          "video": false,
          "poster_path": "/AoXqonhUV6tYaqnj5xlJGvAmOps.jpg",
          "id": 639609,
          "adult": false,
          "backdrop_path": "/1NSjj7AnAbAUXHAJv3a14yC3h4E.jpg",
          "original_language": "en",
          "original_title": "Holiday Rush",
          "genre_ids": [
              35,
              18,
              10749
          ],
          "title": "Holiday Rush",
          "vote_average": 6.1,
          "overview": "After his sudden firing, a popular radio DJ moves in with his aunt, bringing along his four spoiled children, and a plan to return to the airwaves.",
          "release_date": "2019-11-28"
      },
      {
          "popularity": 75.977,
          "vote_count": 12,
          "video": false,
          "poster_path": "/9Vp8MKqrwRAtvACF7PBwbvdG4dq.jpg",
          "id": 512200,
          "adult": false,
          "backdrop_path": "/zTxHf9iIOCqRbxvl8W5QYKrsMLq.jpg",
          "original_language": "en",
          "original_title": "Jumanji: The Next Level",
          "genre_ids": [
              28,
              12,
              35,
              14
          ],
          "title": "Jumanji: The Next Level",
          "vote_average": 8,
          "overview": "Spencer returns to the world of Jumanji, prompting his friends, his grandfather and his grandfather’s friend to enter a different and more dangerous version to save him.",
          "release_date": "2019-12-04"
      },
      {
          "popularity": 55.797,
          "id": 37423,
          "video": false,
          "vote_count": 9,
          "vote_average": 8.2,
          "title": "Fly Girls",
          "release_date": "2010-02-16",
          "original_language": "en",
          "original_title": "Fly Girls",
          "genre_ids": [
              35
          ],
          "backdrop_path": "/supUxDa2BmGMYRZzGXZmIi0DKRQ.jpg",
          "adult": true,
          "overview": "The skies are a whole lot friendlier when a group of the world's most beautiful porn stars pose as slutty flight attendants and sneak onto a plane to shoot a reality show. Cleared for take-off, the captain leaves the real stewardesses detained in security. Sex erupts aboard the flight, and the horny bliss proves too much for the weak-hearted pilot. Now it's up to Digital Playground's girls to land the plane to safety.",
          "poster_path": "/oHZCX9k242wcMp6vExMNRsXF0WO.jpg"
      },
      {
          "popularity": 49.887,
          "vote_count": 157,
          "video": false,
          "poster_path": "/r5WnfZPYAVhBA9FuZGn6THWaGHD.jpg",
          "id": 458897,
          "adult": false,
          "backdrop_path": "/a0xTB1vBxMGt6LGG4N7k1wO9lfL.jpg",
          "original_language": "en",
          "original_title": "Charlie's Angels",
          "genre_ids": [
              28,
              12,
              35
          ],
          "title": "Charlie's Angels",
          "vote_average": 6.4,
          "overview": "When a systems engineer blows the whistle on a dangerous technology, Charlie's Angels from across the globe are called into action, putting their lives on the line to protect society.",
          "release_date": "2019-11-14"
      },
      {
          "popularity": 52.62,
          "vote_count": 356,
          "video": false,
          "poster_path": "/q125RHUDgR4gjwh1QkfYuJLYkL.jpg",
          "id": 508965,
          "adult": false,
          "backdrop_path": "/mlxKite1x1PgmIhJgAxNS9eHmH8.jpg",
          "original_language": "en",
          "original_title": "Klaus",
          "genre_ids": [
              12,
              16,
              35,
              10751
          ],
          "title": "Klaus",
          "vote_average": 8.4,
          "overview": "When Jesper distinguishes himself as the Postal Academy's worst student, he is sent to Smeerensburg, a small village located on a icy island above the Arctic Circle, where grumpy inhabitants barely exchange words, let alone letters. Jesper is about to give up and abandon his duty as a postman when he meets local teacher Alva and Klaus, a mysterious carpenter who lives alone in a cabin full of handmade toys.",
          "release_date": "2019-11-08"
      },
      {
          "popularity": 44.337,
          "vote_count": 3114,
          "video": false,
          "poster_path": "/w9kR8qbmQ01HwnvK4alvnQ2ca0L.jpg",
          "id": 301528,
          "adult": false,
          "backdrop_path": "/m67smI1IIMmYzCl9axvKNULVKLr.jpg",
          "original_language": "en",
          "original_title": "Toy Story 4",
          "genre_ids": [
              12,
              16,
              35,
              14,
              10751
          ],
          "title": "Toy Story 4",
          "vote_average": 7.6,
          "overview": "Woody has always been confident about his place in the world and that his priority is taking care of his kid, whether that's Andy or Bonnie. But when Bonnie adds a reluctant new toy called \"Forky\" to her room, a road trip adventure alongside old and new friends will show Woody how big the world can be for a toy.",
          "release_date": "2019-06-19"
      },
      {
          "popularity": 43.883,
          "vote_count": 95,
          "video": false,
          "poster_path": "/mDeES2L2lhW8rJSyAKZMuKqZM7e.jpg",
          "id": 549053,
          "adult": false,
          "backdrop_path": "/eZ9wYTk9Gy2zYEv8rhRG3IoPuXG.jpg",
          "original_language": "en",
          "original_title": "Last Christmas",
          "genre_ids": [
              35,
              18,
              10749
          ],
          "title": "Last Christmas",
          "vote_average": 7,
          "overview": "Kate is a young woman subscribed to bad decisions. Her last date with disaster? That of having accepted to work as Santa's elf for a department store. However, she meets Tom there. Her life takes a new turn. For Kate, it seems too good to be true.",
          "release_date": "2019-11-07"
      },
      {
          "popularity": 39.434,
          "vote_count": 236,
          "video": false,
          "poster_path": "/ivymBQYzYqZoLhvgYg77gSzXKsA.jpg",
          "id": 611207,
          "adult": false,
          "backdrop_path": "/ymwyqmIee4RwdvZP7R14OsmGSRG.jpg",
          "original_language": "en",
          "original_title": "The Knight Before Christmas",
          "genre_ids": [
              35,
              10749
          ],
          "title": "The Knight Before Christmas",
          "vote_average": 6.6,
          "overview": "A medieval English knight is magically transported to present day where he ends up falling for a high school science teacher.",
          "release_date": "2019-11-21"
      },
      {
          "popularity": 43.659,
          "vote_count": 12567,
          "video": false,
          "poster_path": "/rzRwTcFvttcN1ZpX2xv4j3tSdJu.jpg",
          "id": 284053,
          "adult": false,
          "backdrop_path": "/kaIfm5ryEOwYg8mLbq8HkPuM1Fo.jpg",
          "original_language": "en",
          "original_title": "Thor: Ragnarok",
          "genre_ids": [
              28,
              12,
              35,
              14
          ],
          "title": "Thor: Ragnarok",
          "vote_average": 7.5,
          "overview": "Thor is imprisoned on the other side of the universe and finds himself in a race against time to get back to Asgard to stop Ragnarok, the destruction of his home-world and the end of Asgardian civilization, at the hands of an all-powerful new threat, the ruthless Hela.",
          "release_date": "2017-10-25"
      },
      {
          "popularity": 45.47,
          "id": 324857,
          "video": false,
          "vote_count": 5729,
          "vote_average": 8.4,
          "title": "Spider-Man: Into the Spider-Verse",
          "release_date": "2018-12-06",
          "original_language": "en",
          "original_title": "Spider-Man: Into the Spider-Verse",
          "genre_ids": [
              28,
              12,
              16,
              878,
              35
          ],
          "backdrop_path": "/uUiId6cG32JSRI6RyBQSvQtLjz2.jpg",
          "adult": false,
          "overview": "Miles Morales is juggling his life between being a high school student and being a spider-man. When Wilson \"Kingpin\" Fisk uses a super collider, others from across the Spider-Verse are transported to this dimension.",
          "poster_path": "/iiZZdoQBEYBv6id8su7ImL0oCbD.jpg"
      },
      {
          "popularity": 33.833,
          "vote_count": 159,
          "video": false,
          "poster_path": "/uoAqJg7ZSmftnBGOkupU1ySZQU0.jpg",
          "id": 528888,
          "adult": false,
          "backdrop_path": "/8FuiFasbeFQj24Vqx6JqSCqj5lO.jpg",
          "original_language": "en",
          "original_title": "Dolemite Is My Name",
          "genre_ids": [
              35,
              18,
              36
          ],
          "title": "Dolemite Is My Name",
          "vote_average": 7.1,
          "overview": "The story of Rudy Ray Moore, who created the iconic big screen pimp character Dolemite in the 1970s.",
          "release_date": "2019-09-07"
      }
  ]
}